<?xml version="1.0" encoding="utf-8"?>
<COLLADA xmlns="http://www.collada.org/2005/11/COLLADASchema" version="1.4.1" xmlns:xsi="http://www.w3.org/2001/XMLSchema-instance">
  <asset>
    <contributor>
      <author>Blender User</author>
      <authoring_tool>Blender 2.79.0 commit date:2018-03-22, commit time:14:10, hash:f4dc9f9d68b</authoring_tool>
    </contributor>
    <created>2019-01-04T09:38:23</created>
    <modified>2019-01-04T09:38:23</modified>
    <unit name="meter" meter="1"/>
    <up_axis>Z_UP</up_axis>
  </asset>
  <library_images/>
  <library_geometries>
    <geometry id="link_right_back_-_lamina_para_rueda-1_001-mesh" name="link right back - lamina para rueda-1.001">
      <mesh>
        <source id="link_right_back_-_lamina_para_rueda-1_001-mesh-positions">
          <float_array id="link_right_back_-_lamina_para_rueda-1_001-mesh-positions-array" count="312">208.5215 197.3707 -317.8739 185.5215 197.3707 -317.8739 185.5215 199.3707 -317.8662 210.5215 199.3707 -317.8662 185.5215 199.319 -304.3663 180.8729 199.3681 -317.1979 180.8729 197.3681 -317.2055 208.5215 46.92182 -318.4502 210.5215 46.92182 -318.4502 210.5215 199.2443 -284.8665 210.5215 89.30831 -301.7877 210.5215 88.56176 -305.6174 210.5215 86.40648 -308.8699 210.5215 83.17057 -311.0501 210.5215 79.34668 -311.8259 187.0215 199.3174 -303.9644 188.1195 199.3132 -302.8663 188.5215 199.3075 -301.3663 185.5215 197.319 -304.374 187.0215 197.3175 -303.9721 188.1195 197.3132 -302.874 208.5215 197.2443 -284.8741 188.1195 197.3018 -299.874 188.5215 197.3075 -301.374 208.5215 86.40648 -308.8699 208.5215 88.56176 -305.6174 208.5215 79.34668 -311.8259 208.5215 83.17057 -311.0501 208.5215 70.08431 -305.6882 208.5215 72.26445 -308.9241 208.5215 43.26443 -317.7373 208.5215 75.51696 -311.0794 210.5215 43.26443 -317.7373 210.5215 75.51696 -311.0794 210.5215 72.26445 -308.9241 176.6009 197.3607 -315.2546 176.6009 199.3607 -315.2469 184.0215 199.3174 -303.9644 184.0215 197.3175 -303.9721 208.5215 40.15828 -315.6789 210.5215 40.15828 -315.6789 210.5215 70.08431 -305.6882 173.0516 197.3489 -312.1791 173.0516 199.3489 -312.1715 208.5215 38.07625 -312.5886 210.5215 38.07625 -312.5886 210.5215 69.30845 -301.8643 170.5125 197.3338 -308.2283 170.5125 199.3337 -308.2206 182.9234 199.3132 -302.8663 182.9234 197.3132 -302.874 208.5215 37.3353 -308.9368 210.5215 37.3353 -308.9368 208.5215 69.30845 -301.8643 208.5215 37.28206 -295.0369 210.5215 37.28206 -295.0369 169.1894 197.3165 -303.7222 169.1894 199.3165 -303.7145 208.5215 89.30831 -301.7877 169.1894 197.2985 -299.0258 169.1894 199.2985 -299.0181 182.5215 199.3075 -301.3663 182.5215 197.3075 -301.374 188.1195 199.3017 -299.8663 210.5215 70.05498 -298.0346 182.9234 199.3017 -299.8663 182.9234 197.3018 -299.874 170.5125 197.2812 -294.5197 208.5215 70.05498 -298.0346 208.5215 88.53244 -297.9638 210.5215 88.53244 -297.9638 208.5215 40.0533 -288.2734 208.5215 37.995 -291.3796 170.5125 199.2812 -294.512 173.0516 199.2661 -290.5612 184.0215 199.2975 -298.7683 184.0215 197.2975 -298.7759 187.0215 199.2975 -298.7683 173.0516 197.2661 -290.5689 187.0215 197.2975 -298.7759 180.8729 199.2468 -285.5348 185.5215 199.296 -298.3663 176.6009 199.2543 -287.4857 185.5215 197.296 -298.374 185.5215 199.2443 -284.8665 180.8729 197.2469 -285.5425 176.6009 197.2543 -287.4934 185.5215 197.2443 -284.8741 208.5215 86.35231 -294.7279 210.5215 86.35231 -294.7279 208.5215 43.14359 -286.1914 208.5215 72.21027 -294.7821 210.5215 72.21027 -294.7821 210.5215 46.79541 -285.4504 210.5215 43.14359 -286.1914 210.5215 40.0533 -288.2734 210.5215 37.995 -291.3796 208.5215 83.0998 -292.5726 210.5215 83.0998 -292.5726 208.5215 46.79541 -285.4504 208.5215 75.44618 -292.6019 210.5215 75.44618 -292.6019 208.5215 79.27007 -291.8261 210.5215 79.27007 -291.8261</float_array>
          <technique_common>
            <accessor source="#link_right_back_-_lamina_para_rueda-1_001-mesh-positions-array" count="104" stride="3">
              <param name="X" type="float"/>
              <param name="Y" type="float"/>
              <param name="Z" type="float"/>
            </accessor>
          </technique_common>
        </source>
        <source id="link_right_back_-_lamina_para_rueda-1_001-mesh-normals">
          <float_array id="link_right_back_-_lamina_para_rueda-1_001-mesh-normals-array" count="528">0 0.003829836 -0.9999927 0 0.003829896 -0.9999927 0 0.9999927 0.003830969 -1.06375e-5 0.9999927 0.003829956 -0.1423255 0.00379157 -0.9898127 -0.1423209 0.00379157 -0.9898134 -1.37933e-5 0.003830432 -0.9999927 0 0.003830432 -0.9999927 1 0 0 1 -6.31173e-7 0 1 8.8655e-7 0 1 0 0 2.80765e-5 0.9999927 0.003835499 5.57308e-7 0.9999927 0.003828287 -2.25234e-5 0.9999928 0.00379467 -3.4679e-7 0.9999927 0.003829538 1.07458e-5 -0.9999927 -0.003829956 1.88379e-5 -0.9999927 -0.00382781 0 -0.9999927 -0.003826856 -3.58171e-5 -0.9999926 -0.003868579 -1.49581e-6 -0.9999927 -0.003829956 2.75885e-5 -0.9999929 -0.003802955 2.43673e-5 -0.9999927 -0.003812134 -1 0 0 -1 -2.1286e-6 0 -1 9.00706e-7 0 -1 -2.3755e-6 0 0 -0.1913254 -0.9815267 0 -0.191325 -0.9815268 1 5.76808e-7 0 -0.415405 0.003482878 -0.90963 -0.4154202 0.003482937 -0.9096229 -3.93829e-5 0.9999927 0.003838539 1.53072e-5 0.9999927 0.003825128 -1.63493e-5 -0.9999927 -0.003815412 -1.2477e-5 -0.9999928 -0.003823161 0 -0.5523857 -0.8335888 1 4.31891e-6 0 1 -3.29462e-6 0 -0.6548623 0.002898097 -0.7557427 -0.6548581 0.002885103 -0.7557464 8.79841e-7 0.9999927 0.00383681 3.6028e-6 -0.9999927 -0.003827095 0 -0.8293391 -0.5587458 0 -0.8293339 -0.5587533 1 -1.02713e-6 0 -0.8412504 0.002079427 -0.5406417 -0.8412561 0.002066314 -0.540633 9.0578e-7 0.9999927 0.003849148 -5.6037e-6 0.9999926 0.003843605 3.95821e-5 -0.9999926 -0.003872334 -1.02938e-5 -0.9999927 -0.003827035 -1 2.00115e-6 0 0 -0.9800302 -0.1988487 0 -0.9800307 -0.1988468 1 -1.00061e-6 0 0 0.1913352 0.9815248 0 0.1913345 0.981525 0 -0.1988514 0.9800298 0 -0.1988506 0.9800298 0 -0.5587458 0.8293391 0 -0.5587475 0.8293378 0 0.5523841 0.8335897 0 0.5523859 0.8335885 0 -0.8335922 0.5523805 0 -0.8335951 0.552376 0 0.8293294 0.5587602 0 0.8293342 0.5587529 0 -0.9999927 -0.003830015 0 -0.9999927 -0.003830611 -0.9594926 0.001078665 -0.2817318 -0.9594934 0.001078724 -0.2817292 5.3125e-6 0.9999928 0.003812611 -3.85953e-6 -0.9999927 -0.003832995 0 -0.9815255 0.1913315 0 -0.9815248 0.1913352 0 0.9800316 0.1988423 0 0.9800308 0.1988461 0.2588227 -0.003714263 0.9659178 0.2588129 -0.003712356 0.9659205 -0.2588004 -0.003714144 0.9659237 -0.2588227 -0.003714263 0.9659178 0.7071092 -0.002702057 0.7070993 0.7071091 -0.002720117 0.7070993 -0.7070962 -0.002721965 0.7071122 -0.7071288 -0.002701997 0.7070797 6.64877e-6 0.9999928 0.003800511 0 0.9999927 0.00383681 0 -0.9999927 -0.00383681 -6.62587e-6 -0.9999927 -0.003823757 0.9659241 -0.001002192 0.2588237 0.9659241 -9.78136e-4 0.2588237 -0.9659233 -9.82602e-4 0.2588272 -0.9659241 -9.82589e-4 0.2588237 -2.25231e-5 0.9999926 0.003868579 -0.9659253 9.82572e-4 -0.2588193 -0.965924 9.82629e-4 -0.2588244 5.31663e-6 0.9999926 0.00386238 0.965924 9.82629e-4 -0.2588244 0.9659241 9.95025e-4 -0.2588237 1.64849e-5 -0.9999929 -0.003808677 -9.96182e-7 -0.9999927 -0.003840744 0 0.9815255 -0.1913315 0 0.9815263 -0.1913277 0 -0.9800308 -0.1988461 -1 -1.14659e-6 0 1 -1.12633e-6 0 -1 9.99058e-7 0 0 -0.9800302 -0.1988491 3.76872e-6 0.9999927 0.003835916 -3.56322e-6 0.9999927 0.00382024 -2.07194e-6 0.9999927 0.003831744 0.7070895 0.002712011 -0.7071189 0.7071337 0.002695262 -0.7070748 1.76475e-6 0.9999926 0.00385195 -0.7071127 0.002702236 -0.7070956 -3.3604e-5 -0.9999926 -0.003860712 9.28882e-6 -0.9999927 -0.00382024 3.08622e-5 -0.9999926 -0.003858506 -0.7071092 0.002702057 -0.7070993 -0.9594931 -0.001078665 0.2817302 -0.959494 -0.001078665 0.2817271 -1.83732e-5 0.9999927 0.003832757 3.58003e-6 0.9999927 0.003829002 6.78628e-6 0.9999927 0.003834843 0.2587763 0.003699421 -0.9659303 0.2588496 0.003701508 -0.9659106 0 0.9999927 0.003824174 1.86495e-5 0.9999927 0.00382781 -0.2588664 0.003699362 -0.9659062 1.66203e-5 -0.9999927 -0.003821194 9.70777e-6 -0.9999927 -0.003821253 -3.58006e-6 -0.9999927 -0.003829061 -1.29519e-5 -0.9999927 -0.003828346 -0.2587763 0.003699421 -0.9659303 -1.53486e-5 0.9999927 0.003828048 0 -0.9999927 -0.003827571 -4.2854e-6 -0.9999927 -0.003828048 0 -0.8293342 -0.5587529 1 9.46757e-7 0 0 -0.8293409 -0.558743 0 0.8335951 -0.552376 0 0.8335903 -0.5523833 1 -2.15517e-6 0 1 1.00056e-6 0 -0.8412573 -0.002066314 0.5406311 -0.8412523 -0.002066373 0.5406389 0 -0.9815252 0.1913332 0 -0.9815261 0.1913282 0 -0.5523805 -0.8335922 1 -6.64891e-7 0 -1 -1.42603e-6 0 -1 4.61425e-6 0 0 0.5587475 -0.8293378 0 0.5587458 -0.8293391 0 -0.1913345 -0.981525 1 -5.25182e-7 0 0 -0.1913337 -0.9815251 -1 2.46229e-6 0 0 0.1988506 -0.9800298 0 0.1988514 -0.9800298 0 -0.8335949 0.5523762 0 -0.833591 0.5523824 -0.6548661 -0.00291109 0.7557395 -0.6548506 -0.002898097 0.7557528 0 -0.5587505 0.8293358 0 -0.5587515 0.8293353 -0.4154053 -0.003483116 0.9096298 -0.4154202 -0.003502428 0.9096229 0 -0.1988436 0.9800313 -0.1423073 -0.003775298 0.9898154 -0.1423282 -0.003791809 0.9898123 0 -0.003814637 0.9999927 2.56232e-5 -0.003830432 0.9999927 0 -0.003814637 0.9999928 0 -0.003830611 0.9999927</float_array>
          <technique_common>
            <accessor source="#link_right_back_-_lamina_para_rueda-1_001-mesh-normals-array" count="176" stride="3">
              <param name="X" type="float"/>
              <param name="Y" type="float"/>
              <param name="Z" type="float"/>
            </accessor>
          </technique_common>
        </source>
        <vertices id="link_right_back_-_lamina_para_rueda-1_001-mesh-vertices">
          <input semantic="POSITION" source="#link_right_back_-_lamina_para_rueda-1_001-mesh-positions"/>
        </vertices>
        <triangles count="212">
          <input semantic="VERTEX" source="#link_right_back_-_lamina_para_rueda-1_001-mesh-vertices" offset="0"/>
          <input semantic="NORMAL" source="#link_right_back_-_lamina_para_rueda-1_001-mesh-normals" offset="1"/>
          <p>0 0 1 0 2 0 3 1 0 1 2 1 4 2 3 2 2 2 5 3 4 3 2 3 6 4 5 4 2 4 1 5 6 5 2 5 7 6 0 6 3 6 8 7 7 7 3 7 9 8 10 8 3 8 10 8 11 8 3 8 11 9 12 9 3 9 12 10 13 10 3 10 13 8 14 8 3 8 14 11 8 11 3 11 4 12 15 12 3 12 15 13 16 13 3 13 16 14 17 14 3 14 17 15 9 15 3 15 18 16 6 16 1 16 19 17 18 17 1 17 0 18 19 18 1 18 20 19 19 19 0 19 21 20 22 20 0 20 22 21 23 21 0 21 23 22 20 22 0 22 24 23 25 23 0 23 25 23 21 23 0 23 7 23 26 23 0 23 26 24 27 24 0 24 27 25 24 25 0 25 28 26 29 26 7 26 30 23 28 23 7 23 29 23 31 23 7 23 31 23 26 23 7 23 8 27 32 27 7 27 32 28 30 28 7 28 14 8 33 8 8 8 33 8 34 8 8 8 34 29 32 29 8 29 35 30 36 30 5 30 6 31 35 31 5 31 37 32 4 32 5 32 36 33 37 33 5 33 18 34 38 34 6 34 38 35 35 35 6 35 39 23 28 23 30 23 32 36 40 36 30 36 40 36 39 36 30 36 34 37 41 37 32 37 41 38 40 38 32 38 42 39 43 39 36 39 35 40 42 40 36 40 43 41 37 41 36 41 38 42 42 42 35 42 44 23 28 23 39 23 40 43 45 43 39 43 45 44 44 44 39 44 41 8 46 8 40 8 46 45 45 45 40 45 47 46 48 46 43 46 42 47 47 47 43 47 49 48 37 48 43 48 48 49 49 49 43 49 38 50 50 50 42 50 50 51 47 51 42 51 51 52 28 52 44 52 45 53 52 53 44 53 52 54 51 54 44 54 46 55 52 55 45 55 33 56 14 56 26 56 31 57 33 57 26 57 14 58 27 58 26 58 13 59 27 59 14 59 13 60 24 60 27 60 12 61 24 61 13 61 34 62 33 62 31 62 29 63 34 63 31 63 12 64 25 64 24 64 11 65 25 65 12 65 41 66 34 66 29 66 28 67 41 67 29 67 53 23 28 23 51 23 54 23 53 23 51 23 55 68 54 68 51 68 52 69 55 69 51 69 46 8 55 8 52 8 56 70 57 70 48 70 47 71 56 71 48 71 57 72 49 72 48 72 50 73 56 73 47 73 58 23 21 23 25 23 11 74 58 74 25 74 10 75 58 75 11 75 46 76 41 76 28 76 53 77 46 77 28 77 37 78 38 78 4 78 38 79 18 79 4 79 18 80 15 80 4 80 19 81 15 81 18 81 49 82 50 82 37 82 50 83 38 83 37 83 19 84 16 84 15 84 20 85 16 85 19 85 59 23 60 23 57 23 56 23 59 23 57 23 61 86 49 86 57 86 60 87 61 87 57 87 62 88 59 88 56 88 50 89 62 89 56 89 61 90 62 90 49 90 62 91 50 91 49 91 20 92 17 92 16 92 23 93 17 93 20 93 63 94 9 94 17 94 23 95 63 95 17 95 22 96 63 96 23 96 64 8 55 8 46 8 60 97 65 97 61 97 65 98 66 98 61 98 66 99 62 99 61 99 66 100 67 100 62 100 67 101 59 101 62 101 64 102 46 102 53 102 68 103 64 103 53 103 10 104 69 104 58 104 69 105 21 105 58 105 9 106 70 106 10 106 71 107 68 107 53 107 72 23 71 23 53 23 54 23 72 23 53 23 70 108 69 108 10 108 60 109 73 109 65 109 73 110 74 110 65 110 74 111 75 111 65 111 75 112 76 112 65 112 76 113 66 113 65 113 77 114 9 114 63 114 22 115 77 115 63 115 76 116 78 116 66 116 78 117 67 117 66 117 21 118 79 118 22 118 79 119 77 119 22 119 67 120 73 120 60 120 59 121 67 121 60 121 80 122 81 122 75 122 74 123 82 123 75 123 82 124 80 124 75 124 81 125 83 125 75 125 83 126 76 126 75 126 84 127 9 127 77 127 81 128 84 128 77 128 79 129 81 129 77 129 83 130 85 130 76 130 85 131 86 131 76 131 86 132 78 132 76 132 21 133 83 133 79 133 83 134 81 134 79 134 80 135 84 135 81 135 21 136 87 136 83 136 87 137 85 137 83 137 88 23 21 23 69 23 70 138 88 138 69 138 9 139 89 139 70 139 89 140 88 140 70 140 90 23 91 23 68 23 71 23 90 23 68 23 92 141 64 141 68 141 91 142 92 142 68 142 92 8 93 8 64 8 93 8 94 8 64 8 94 8 95 8 64 8 95 143 96 143 64 143 96 144 55 144 64 144 78 145 74 145 73 145 67 146 78 146 73 146 96 147 72 147 54 147 55 148 96 148 54 148 97 23 21 23 88 23 89 149 97 149 88 149 9 150 98 150 89 150 98 149 97 149 89 149 99 151 100 151 91 151 90 152 99 152 91 152 101 153 92 153 91 153 100 154 101 154 91 154 101 8 93 8 92 8 102 23 21 23 97 23 98 155 102 155 97 155 9 156 103 156 98 156 103 157 102 157 98 157 99 158 102 158 100 158 103 159 101 159 100 159 102 160 103 160 100 160 103 8 93 8 101 8 99 23 21 23 102 23 9 8 93 8 103 8 95 161 71 161 72 161 96 162 95 162 72 162 86 163 82 163 74 163 78 164 86 164 74 164 94 165 90 165 71 165 95 166 94 166 71 166 85 167 80 167 82 167 86 168 85 168 82 168 93 169 99 169 90 169 94 169 93 169 90 169 87 170 84 170 80 170 85 171 87 171 80 171 87 172 9 172 84 172 21 173 93 173 9 173 87 174 21 174 9 174 99 175 93 175 21 175</p>
        </triangles>
      </mesh>
    </geometry>
    <geometry id="link_right_back_-_Pieza2-1_001-mesh" name="link right back - Pieza2-1.001">
      <mesh>
        <source id="link_right_back_-_Pieza2-1_001-mesh-positions">
          <float_array id="link_right_back_-_Pieza2-1_001-mesh-positions-array" count="432">192.5215 76.27494 -292.2972 192.5215 73.50111 -290.7569 192.5215 75.45533 -289.9347 192.5215 78.13309 -291.8953 192.5215 77.52041 -289.4545 208.5215 75.45533 -289.9347 208.5215 77.52041 -289.4545 208.5215 76.27494 -292.2972 208.5215 74.52642 -293.0435 208.5215 73.50111 -290.7569 192.5215 74.52642 -293.0435 192.5215 71.71395 -291.8975 208.5215 72.95072 -294.1072 208.5215 71.71395 -291.8975 192.5215 80.03373 -291.8523 192.5215 79.63691 -289.3303 208.5215 79.63691 -289.3303 208.5215 78.13309 -291.8953 192.5215 72.95072 -294.1072 192.5215 70.14527 -293.3238 208.5215 71.60482 -295.4498 208.5215 70.14527 -293.3238 192.5215 81.90815 -292.1698 192.5215 81.74396 -289.5656 208.5215 81.74396 -289.5656 208.5215 80.03373 -291.8523 192.5215 71.60482 -295.4498 192.5215 68.84019 -294.9947 208.5215 70.53734 -297.023 208.5215 68.84019 -294.9947 192.5215 83.78095 -290.1535 208.5215 83.78095 -290.1535 208.5215 81.90815 -292.1698 192.5215 70.53734 -297.023 192.5215 67.83627 -296.862 208.5215 67.83627 -296.862 192.5215 83.6886 -292.8364 192.5215 85.68927 -291.0773 208.5215 85.68927 -291.0773 208.5215 83.6886 -292.8364 192.5215 69.78687 -298.7697 192.5215 67.16237 -298.8723 208.5215 69.78687 -298.7697 208.5215 67.16237 -298.8723 192.5215 85.31075 -293.8278 192.5215 87.41402 -292.3103 208.5215 87.41402 -292.3103 192.5215 66.83788 -300.9674 208.5215 69.38053 -300.6269 208.5215 66.83788 -300.9674 208.5215 85.31075 -293.8278 192.5215 69.38053 -300.6269 192.5215 86.71595 -295.1083 192.5215 88.90559 -293.817 208.5215 88.90559 -293.817 208.5215 86.71595 -295.1083 192.5215 66.87217 -303.0873 208.5215 69.333 -302.5274 208.5215 66.87217 -303.0873 192.5215 69.333 -302.5274 192.5215 87.85342 -296.6316 192.5215 90.12107 -295.5542 208.5215 90.12107 -295.5542 208.5215 87.85342 -296.6316 192.5215 67.26422 -305.1709 208.5215 69.64602 -304.4026 208.5215 67.26422 -305.1709 192.5215 69.64602 -304.4026 192.5215 88.68206 -298.3426 192.5215 91.02547 -297.4718 208.5215 91.02547 -297.4718 208.5215 88.68206 -298.3426 192.5215 67.59127 -306.1802 208.5215 67.59127 -306.1802 208.5215 69.9347 -305.3094 192.5215 69.9347 -305.3094 208.5215 89.1719 -300.1795 192.5215 89.1719 -300.1795 192.5215 91.59281 -299.5146 208.5215 91.59281 -299.5146 192.5215 70.30825 -306.1847 192.5215 68.00276 -307.1582 208.5215 70.30825 -306.1847 208.5215 68.00276 -307.1582 192.5215 71.29577 -307.8092 192.5215 69.06652 -308.9922 208.5215 71.29577 -307.8092 208.5215 69.06652 -308.9922 192.5215 89.30525 -302.076 208.5215 89.30525 -302.076 208.5215 91.80674 -301.6239 192.5215 91.80674 -301.6239 192.5215 72.5729 -309.2174 192.5215 70.42493 -310.62 208.5215 72.5729 -309.2174 208.5215 70.42493 -310.62 192.5215 89.07729 -303.9634 208.5215 89.07729 -303.9634 208.5215 91.66111 -303.7391 192.5215 91.66111 -303.7391 192.5215 74.09346 -310.3586 192.5215 72.03891 -311.9948 208.5215 74.09346 -310.3586 208.5215 72.03891 -311.9948 192.5215 88.49625 -305.7735 208.5215 88.49625 -305.7735 208.5215 91.16013 -305.7991 192.5215 91.16013 -305.7991 192.5215 75.8025 -311.1913 192.5215 73.86203 -313.0771 208.5215 73.86203 -313.0771 208.5215 75.8025 -311.1913 192.5215 90.31819 -307.7449 192.5215 87.58314 -307.441 208.5215 87.58314 -307.441 208.5215 90.31819 -307.7449 192.5215 77.63825 -311.6856 192.5215 77.92131 -314.2488 192.5215 75.84181 -313.8357 208.5215 75.84181 -313.8357 208.5215 77.63825 -311.6856 192.5215 89.15951 -309.5205 192.5215 86.37095 -308.9055 208.5215 86.37095 -308.9055 208.5215 87.71743 -311.0747 208.5215 89.15951 -309.5205 192.5215 79.53436 -311.8234 192.5215 80.04074 -314.3045 208.5215 77.92131 -314.2488 208.5215 79.53436 -311.8234 192.5215 87.71743 -311.0747 192.5215 84.90352 -310.1142 208.5215 84.90352 -310.1142 208.5215 86.03345 -312.3627 192.5215 81.42231 -311.6 192.5215 82.13908 -314.0013 208.5215 80.04074 -314.3045 208.5215 81.42231 -311.6 192.5215 86.03345 -312.3627 192.5215 83.23385 -311.0233 208.5215 83.23385 -311.0233 208.5215 84.15599 -313.3477 192.5215 84.15599 -313.3477 208.5215 82.13908 -314.0013</float_array>
          <technique_common>
            <accessor source="#link_right_back_-_Pieza2-1_001-mesh-positions-array" count="144" stride="3">
              <param name="X" type="float"/>
              <param name="Y" type="float"/>
              <param name="Z" type="float"/>
            </accessor>
          </technique_common>
        </source>
        <source id="link_right_back_-_Pieza2-1_001-mesh-normals">
          <float_array id="link_right_back_-_Pieza2-1_001-mesh-normals-array" count="600">-1 5.76794e-6 0 -1 -1.29329e-5 0 -1 1.14414e-5 0 0 -0.3878068 0.9217408 0 -0.2264592 0.9740207 0 -0.2264612 0.9740202 1 -5.78824e-6 0 1 1.28697e-5 0 1 0 0 0 -0.387806 0.921741 -1 0 0 0 -0.5380087 0.8429394 0 -0.5380048 0.8429418 -1 -1.30828e-5 0 -1 1.13296e-5 0 0 -0.05858403 0.9982825 0 -0.05858415 0.9982825 1 5.09408e-6 0 -1 1.27225e-5 0 0 -0.6727247 0.739893 0 -0.6727237 0.7398939 0 0.1109647 0.9938244 0 0.1109641 0.9938244 1 -1.46141e-6 0 0 -0.7880895 0.6155608 0 -0.7880923 0.6155572 0 0.2773171 0.9607785 0 0.2773179 0.9607783 1 1.17187e-5 0 0 -0.8807836 0.4735192 0 -0.8807801 0.4735255 0 0.3925442 -0.9197332 0 0.2113962 -0.9774006 0 0.211395 -0.9774007 0 0.3925462 -0.9197323 0 0.5595184 -0.828818 0 0.5595139 -0.828821 0 0.02260178 -0.9997446 0 0.02260166 -0.9997447 0 0.7062555 -0.7079571 0 0.7062515 -0.7079611 -1 -1.26151e-5 0 -1 2.34521e-5 0 0 0.4357048 0.9000897 0 0.4357084 0.900088 1 -5.86304e-6 0 0 -0.1670093 -0.9859554 0 -0.1670095 -0.9859554 0 0.8274778 -0.5614985 0 0.8274809 -0.5614939 -1 -1.26138e-5 0 0 -0.9481403 0.3178526 1 9.46038e-6 0 0 -0.9481422 0.3178466 0 -0.3506018 -0.9365247 0 -0.3505992 -0.9365257 -1 2.34271e-5 0 0 0.5815635 0.8135011 0 0.9187884 -0.3947505 0 0.9187881 -0.3947513 0 -0.9882181 0.153053 1 2.36814e-6 0 0 -0.988218 0.1530533 0 -0.5214779 -0.8532649 0 -0.5214823 -0.8532622 1 3.35607e-6 0 -1 1.33156e-5 0 0 0.9768908 -0.213739 -1 -1.26483e-5 0 0 0.7106676 0.7035281 0 0.710672 0.7035235 1 -1.12355e-5 0 0 -0.6735512 -0.7391406 0 -0.6735552 -0.7391369 1 -5.78184e-6 0 -1 1.1299e-5 0 0 -0.9998691 -0.01617884 1 -3.16817e-6 0 0 -0.9998692 -0.01617169 0 0.9996876 -0.02499371 0 0.9996875 -0.02500182 -1 6.35211e-6 0 0 0.8193509 0.5732923 0 0.8193476 0.5732972 0 -0.80126 -0.5983164 0 -0.8012607 -0.5983154 0 -0.982755 -0.184913 1 3.18569e-6 0 0 -0.9827536 -0.1849203 0 0.9863524 0.1646485 0 0.9863523 0.1646488 -1 1.27884e-5 0 0 0.9044519 0.4265757 1 1.1467e-5 0 0 -0.9000094 -0.4358705 0 -0.9000098 -0.4358698 -1 1.14931e-5 0 0 -0.9513119 -0.3082302 0 -0.9513075 -0.3082438 0 0.9528793 0.30335 0 0.9528791 0.3033506 0 -0.9662358 -0.2576597 0 -0.9662359 -0.2576591 -1 -6.45012e-6 0 -1 2.29337e-5 0 0 0.9635316 0.2675949 0 0.9635317 0.2675944 0 0.9197403 0.3925275 0 -0.921738 -0.3878133 0 -0.9217332 -0.3878249 1 -2.6487e-6 0 0 0.8545019 0.5194485 0 0.8545013 0.5194493 0 -0.8650168 -0.5017432 1 5.70763e-6 0 0 -0.8650162 -0.501744 0 -0.9975371 -0.07014042 0 -0.9975371 -0.0701403 1 5.81436e-6 0 0 0.9948964 0.1009017 0 0.9948957 0.1009086 -1 -5.82859e-6 0 0 0.7407619 0.6717677 0 0.7407611 0.6717687 0 -0.7677794 -0.6407143 1 -1.41237e-6 0 0 -0.7677822 -0.640711 -1 -1.32158e-5 0 0 -0.9927855 0.1199044 0 -0.9927846 0.1199121 1 -2.92022e-6 0 -1 1.12352e-5 0 0 0.9976382 -0.06868845 0 0.9976382 -0.06868833 -1 2.526e-5 0 0 0.6002357 0.7998233 0 0.6002312 0.7998267 0 -0.6484518 -0.7612558 1 5.58335e-6 0 0 -0.6484507 -0.7612567 0 -0.9521504 0.3056304 0 -0.9521505 0.3056298 1 -1.46425e-6 0 0 0.9716796 -0.2363021 0 0.9716815 -0.2362949 -1 2.52271e-5 0 -1 -2.3445e-5 0 0 0.438021 0.8989648 1 -6.30676e-6 0 0 0.4380242 0.8989633 0 -0.8771024 0.4803035 0 -0.8771063 0.4802965 1 -5.49686e-7 0 0 -0.5104689 -0.8598963 0 -0.5104683 -0.8598966 -1 1.11322e-5 0 0 0.2599843 0.9656129 0 0.2599838 0.965613 0 0.9177674 -0.3971186 0 0.9177703 -0.3971119 -1 1.17188e-5 0 0 -0.7703539 0.6376167 0 -0.7703547 0.6376157 0 -0.3578115 -0.9337939 0 -0.3578083 -0.9337952 -1 -1.12675e-5 0 0 0.07252478 0.9973667 1 1.18683e-5 0 0 0.0725252 0.9973667 0 -0.6357742 0.7718751 0 -0.6357709 0.7718779 1 -1.13295e-5 0 0 0.8374567 -0.5465038 -1 -1.30039e-5 0 -1 1.13876e-5 0 0 -0.1175194 0.9930706 1 -3.18066e-6 0 0 -0.1175192 0.9930707 -1 6.38244e-6 0 0 -0.4781974 0.8782523 0 -0.4781982 0.8782519 1 -1.14416e-5 0 0 -0.3033436 0.9528813 1 6.40664e-6 0 0 -0.3033431 0.9528814 1 -1.1536e-5 0 0 -0.1948509 -0.9808329 0 -0.1948537 -0.9808324 0 0.7330473 -0.6801778 0 0.733048 -0.6801769 0 -0.02626925 -0.9996549 0 -0.02626901 -0.999655 0 0.6075513 -0.7942805 0 0.607549 -0.7942822 0 0.1430345 -0.9897178 0 0.1430343 -0.9897178 0 0.4645797 -0.8855313 0 0.4645834 -0.8855295 0 0.3082499 -0.9513055 0 0.3082474 -0.9513064</float_array>
          <technique_common>
            <accessor source="#link_right_back_-_Pieza2-1_001-mesh-normals-array" count="200" stride="3">
              <param name="X" type="float"/>
              <param name="Y" type="float"/>
              <param name="Z" type="float"/>
            </accessor>
          </technique_common>
        </source>
        <vertices id="link_right_back_-_Pieza2-1_001-mesh-vertices">
          <input semantic="POSITION" source="#link_right_back_-_Pieza2-1_001-mesh-positions"/>
        </vertices>
        <triangles count="288">
          <input semantic="VERTEX" source="#link_right_back_-_Pieza2-1_001-mesh-vertices" offset="0"/>
          <input semantic="NORMAL" source="#link_right_back_-_Pieza2-1_001-mesh-normals" offset="1"/>
          <p>0 0 1 0 2 0 3 1 0 1 2 1 4 2 3 2 2 2 1 3 5 3 2 3 5 4 6 4 2 4 6 5 4 5 2 5 7 6 6 6 5 6 8 7 7 7 5 7 9 8 8 8 5 8 1 9 9 9 5 9 10 10 11 10 1 10 0 10 10 10 1 10 11 11 9 11 1 11 12 8 8 8 9 8 13 8 12 8 9 8 11 12 13 12 9 12 14 13 3 13 4 13 15 14 14 14 4 14 6 15 16 15 4 15 16 16 15 16 4 16 17 17 16 17 6 17 7 8 17 8 6 8 18 10 19 10 11 10 10 18 18 18 11 18 19 19 13 19 11 19 20 8 12 8 13 8 21 8 20 8 13 8 19 20 21 20 13 20 22 10 14 10 15 10 23 10 22 10 15 10 16 21 24 21 15 21 24 22 23 22 15 22 25 23 24 23 16 23 17 8 25 8 16 8 26 10 27 10 19 10 18 10 26 10 19 10 27 24 21 24 19 24 28 8 20 8 21 8 29 8 28 8 21 8 27 25 29 25 21 25 30 10 22 10 23 10 24 26 31 26 23 26 31 27 30 27 23 27 32 28 31 28 24 28 25 8 32 8 24 8 33 10 34 10 27 10 26 10 33 10 27 10 34 29 29 29 27 29 35 8 28 8 29 8 34 30 35 30 29 30 7 31 10 31 0 31 17 32 7 32 0 32 3 33 17 33 0 33 8 34 10 34 7 34 8 35 18 35 10 35 12 36 18 36 8 36 25 37 17 37 3 37 14 38 25 38 3 38 12 39 26 39 18 39 20 40 26 40 12 40 36 41 22 41 30 41 37 42 36 42 30 42 31 43 38 43 30 43 38 44 37 44 30 44 39 45 38 45 31 45 32 8 39 8 31 8 32 46 25 46 14 46 22 47 32 47 14 47 20 48 33 48 26 48 28 49 33 49 20 49 33 50 40 50 34 50 40 10 41 10 34 10 41 51 35 51 34 51 42 52 28 52 35 52 43 8 42 8 35 8 41 53 43 53 35 53 39 54 32 54 22 54 36 55 39 55 22 55 44 10 36 10 37 10 45 56 44 56 37 56 38 57 46 57 37 57 46 57 45 57 37 57 39 8 46 8 38 8 28 58 40 58 33 58 42 59 40 59 28 59 40 10 47 10 41 10 47 60 43 60 41 60 48 61 42 61 43 61 49 8 48 8 43 8 47 62 49 62 43 62 50 63 39 63 36 63 44 64 50 64 36 64 50 65 46 65 39 65 51 66 47 66 40 66 42 67 51 67 40 67 48 67 51 67 42 67 52 68 44 68 45 68 53 10 52 10 45 10 46 69 54 69 45 69 54 70 53 70 45 70 50 71 54 71 46 71 55 72 50 72 44 72 52 73 55 73 44 73 55 74 54 74 50 74 51 75 56 75 47 75 56 76 49 76 47 76 57 77 48 77 49 77 58 8 57 8 49 8 56 78 58 78 49 78 59 10 56 10 51 10 48 79 59 79 51 79 57 80 59 80 48 80 60 81 52 81 53 81 61 10 60 10 53 10 54 82 62 82 53 82 62 83 61 83 53 83 55 8 62 8 54 8 63 84 55 84 52 84 60 85 63 85 52 85 63 8 62 8 55 8 59 10 64 10 56 10 64 86 58 86 56 86 65 87 57 87 58 87 66 8 65 8 58 8 64 88 66 88 58 88 67 10 64 10 59 10 57 89 67 89 59 89 65 90 67 90 57 90 68 91 60 91 61 91 69 10 68 10 61 10 62 92 70 92 61 92 70 92 69 92 61 92 63 93 70 93 62 93 71 94 63 94 60 94 68 95 71 95 60 95 71 8 70 8 63 8 67 96 72 96 64 96 72 97 73 97 64 97 73 98 66 98 64 98 74 8 65 8 66 8 73 8 74 8 66 8 75 10 72 10 67 10 65 99 75 99 67 99 74 100 75 100 65 100 76 101 71 101 68 101 77 102 76 102 68 102 77 103 68 103 69 103 78 104 77 104 69 104 70 105 79 105 69 105 79 106 78 106 69 106 71 8 79 8 70 8 76 8 79 8 71 8 80 10 81 10 75 10 81 10 72 10 75 10 82 107 80 107 74 107 80 107 75 107 74 107 83 108 73 108 72 108 81 109 83 109 72 109 82 8 74 8 73 8 83 110 82 110 73 110 84 10 85 10 80 10 85 10 81 10 80 10 82 111 84 111 80 111 83 8 86 8 82 8 86 112 84 112 82 112 85 113 83 113 81 113 87 114 86 114 83 114 85 115 87 115 83 115 78 10 88 10 77 10 89 116 76 116 77 116 88 117 89 117 77 117 89 8 90 8 76 8 90 118 79 118 76 118 91 10 88 10 78 10 79 119 90 119 78 119 90 120 91 120 78 120 92 10 93 10 84 10 93 121 85 121 84 121 86 122 92 122 84 122 87 8 94 8 86 8 94 123 92 123 86 123 93 124 87 124 85 124 95 125 94 125 87 125 93 126 95 126 87 126 91 127 96 127 88 127 97 128 89 128 88 128 96 129 97 129 88 129 97 8 98 8 89 8 98 130 90 130 89 130 99 131 96 131 91 131 90 132 98 132 91 132 98 133 99 133 91 133 100 134 101 134 92 134 101 10 93 10 92 10 94 135 100 135 92 135 95 8 102 8 94 8 102 136 100 136 94 136 101 137 95 137 93 137 103 138 102 138 95 138 101 139 103 139 95 139 99 10 104 10 96 10 105 140 97 140 96 140 104 141 105 141 96 141 105 8 106 8 97 8 106 142 98 142 97 142 107 10 104 10 99 10 98 143 106 143 99 143 106 144 107 144 99 144 108 145 109 145 100 145 109 146 101 146 100 146 102 147 108 147 100 147 103 8 110 8 102 8 110 148 111 148 102 148 111 149 108 149 102 149 107 10 112 10 104 10 112 10 113 10 104 10 114 150 105 150 104 150 113 151 114 151 104 151 114 8 115 8 105 8 115 152 106 152 105 152 109 153 103 153 101 153 109 154 110 154 103 154 116 10 117 10 108 10 117 155 118 155 108 155 118 10 109 10 108 10 111 156 116 156 108 156 110 8 119 8 111 8 119 8 120 8 111 8 120 157 116 157 111 157 106 158 115 158 107 158 115 159 112 159 107 159 112 160 121 160 113 160 121 10 122 10 113 10 123 161 114 161 113 161 122 162 123 162 113 162 123 8 124 8 114 8 124 8 125 8 114 8 125 8 115 8 114 8 118 163 110 163 109 163 118 164 119 164 110 164 126 10 127 10 116 10 127 165 117 165 116 165 120 166 126 166 116 166 119 8 128 8 120 8 128 167 129 167 120 167 129 168 126 168 120 168 121 10 130 10 122 10 130 10 131 10 122 10 132 169 123 169 122 169 131 170 132 170 122 170 132 8 133 8 123 8 133 171 124 171 123 171 115 172 125 172 112 172 125 172 121 172 112 172 134 173 135 173 126 173 135 174 127 174 126 174 129 175 134 175 126 175 128 8 136 8 129 8 136 176 137 176 129 176 137 177 134 177 129 177 130 10 138 10 131 10 138 178 139 178 131 178 140 179 132 179 131 179 139 180 140 180 131 180 140 8 141 8 132 8 141 181 133 181 132 181 139 10 142 10 134 10 142 10 135 10 134 10 137 182 139 182 134 182 136 8 143 8 137 8 143 183 140 183 137 183 140 184 139 184 137 184 138 10 142 10 139 10 143 185 141 185 140 185 117 186 119 186 118 186 117 187 128 187 119 187 125 188 124 188 121 188 124 189 130 189 121 189 127 190 128 190 117 190 127 191 136 191 128 191 124 192 133 192 130 192 133 193 138 193 130 193 135 194 136 194 127 194 135 195 143 195 136 195 133 196 141 196 138 196 141 197 142 197 138 197 142 198 143 198 135 198 142 199 141 199 143 199</p>
        </triangles>
      </mesh>
    </geometry>
  </library_geometries>
  <library_controllers/>
  <library_visual_scenes>
    <visual_scene id="Scene" name="Scene">
      <node id="link_right_back_-_lamina_para_rueda-1" name="link_right_back_-_lamina_para_rueda-1" type="NODE">
        <matrix sid="transform">-4.37108e-11 4.37108e-11 9.99987e-4 -2.98023e-8 9.99987e-4 0 4.37108e-11 1.49012e-8 0 9.99987e-4 -4.37108e-11 -2.32831e-10 0 0 0 1</matrix>
        <instance_geometry url="#link_right_back_-_lamina_para_rueda-1_001-mesh" name="link_right_back_-_lamina_para_rueda-1"/>
      </node>
      <node id="link_right_back_-_Pieza2-1" name="link_right_back_-_Pieza2-1" type="NODE">
        <matrix sid="transform">-4.37108e-11 4.37108e-11 9.99987e-4 -2.98023e-8 9.99987e-4 0 4.37108e-11 1.49012e-8 0 9.99987e-4 -4.37108e-11 -2.32831e-10 0 0 0 1</matrix>
        <instance_geometry url="#link_right_back_-_Pieza2-1_001-mesh" name="link_right_back_-_Pieza2-1"/>
      </node>
    </visual_scene>
  </library_visual_scenes>
  <scene>
    <instance_visual_scene url="#Scene"/>
  </scene>
</COLLADA>