<?xml version="1.0" ?>
<robot name="my_chimuelo">
  <!-- joints -->
  <joint name="my_chimuelo__base_footprint_joint" type="fixed">
    <parent link="my_chimuelo__base_footprint"/>
    <child link="my_chimuelo_chasis"/>
    <origin rpy="0  0  0" xyz="0    0    0.33"/>
    <axis xyz="0  0  0"/>
    <limit effort="0" lower="0" upper="0" velocity="0"/>
  </joint>
  <joint name="joint_dir_right" type="revolute">
    <parent link="my_chimuelo_chasis"/>
    <child link="my_chimuelo_right_dir_link"/>
    <origin rpy="1.57  0    0" xyz="0.29119 -0.14405 -0.2501"/>
    <axis xyz="0.00000000e+00   1.00000000e+00   0"/>
    <limit  lower="-0.7" upper="0.7" effort="10.0" velocity="1.0"/>
  </joint>
  <joint name="joint_dir_left" type="revolute">
    <parent link="my_chimuelo_chasis"/>
    <child link="my_chimuelo_left_dir_link"/>
    <origin rpy="1.57  0    0" xyz="0.29119  0.14405 -0.2501"/>
    <axis xyz="0.00000000e+00   1.00000000e+00   0"/>
    <limit  lower="-0.7" upper="0.7" effort="10.0" velocity="1.0"/>
  </joint>
  <joint name="left_back_wheel_joint" type="continuous">
    <parent link="my_chimuelo_chasis"/>
    <child link="my_chimuelo_left_back_wheel_link"/>
    <origin rpy="0  0  0" xyz="-0.29119  0.20187 -0.2501"/>
    <axis xyz="0  1  0"/>
    <limit  effort="100.0" velocity="10.0"/>
     <joint_properties damping="0.1" friction="10.0" />
  </joint>
  <joint name="right_back_wheel_joint" type="continuous">
    <parent link="my_chimuelo_chasis"/>
    <child link="my_chimuelo_right_back_wheel_link"/>
    <origin rpy="0  0  0" xyz="-0.29119 -0.20187 -0.2501"/>
    <axis xyz="0  1  0"/>
    <limit  effort="100.0" velocity="10.0"/>
     <joint_properties damping="0.1" friction="10.0" />
  </joint>
  <joint name="right_front_wheel_joint" type="continuous">
    <parent link="my_chimuelo_right_dir_link"/>
    <child link="my_chimuelo_right_front_wheel_link"/>
    <origin rpy="-1.57  0    0" xyz="0.00000000e+00  -4.00000000e-05   5.78200000e-02"/>
    <axis xyz="0  1  0"/>
    <limit  effort="100.0" velocity="10.0"/>
     <joint_properties damping="0.1" friction="10.0" />
  </joint>
  <joint name="left_front_wheel_joint" type="continuous">
    <parent link="my_chimuelo_left_dir_link"/>
    <child link="my_chimuelo_left_front_wheel_link"/>
    <origin rpy="-1.57  0    0" xyz="0.00000000e+00   4.00000000e-05  -5.78200000e-02"/>
    <axis xyz="0  1  0"/>
    <limit  effort="100.0" velocity="10.0"/>
     <joint_properties damping="0.1" friction="10.0" />
  </joint>

  <!-- Links-->
  <link name="my_chimuelo_chasis">
    <inertial>
      <mass value="4.69214237396735"/>
      <origin rpy="0  0  0" xyz="0  0  0"/>
      <inertia ixx="0.00002855" ixy="0" ixz="0" iyy="0.00002975859" iyz="0" izz="0.000052140354"/>
    </inertial>
    <collision name="my_chimuelo__collision_chasis">
      <origin rpy="0  0  0" xyz="0  0  0"/>
      <geometry>
        <mesh filename="package://chimuelo/meshes/base_link_complete.dae" scale="1.0 1.0 1.0"/>
      </geometry>
    </collision>
    <visual name="my_chimuelo__visual_chasis">
      <origin rpy="0  0  0" xyz="0  0  0"/>
      <geometry>
        <mesh filename="package://chimuelo/meshes/base_link_complete.dae" scale="1.0 1.0 1.0"/>
      </geometry>
    </visual>
  </link>
  <link name="my_chimuelo__base_footprint">
    <inertial>
      <mass value="5e-06"/>
      <origin rpy="0  0  0" xyz="0  0  0"/>
      <inertia ixx="0" ixy="0" ixz="0" iyy="0" iyz="0" izz="0"/>
    </inertial>
    <collision name="my_chimuelo__collision_box">
      <origin rpy="0  0  0" xyz="0      -0.00524  0.32868"/>
      <geometry>
        <box size="0.014171 0.0183 0.019302"/>
      </geometry>
    </collision>
    <visual name="my_chimuelo__visual_box">
      <origin rpy="0  0  0" xyz="0      -0.00524  0.32868"/>
      <geometry>
        <box size="0.014171 0.0183 0.019302"/>
      </geometry>
    </visual>
  </link>
  <link name="my_chimuelo_right_dir_link">
    <inertial>
      <mass value="0.00027881"/>
      <origin rpy="0  0  0" xyz="0  0  0"/>
      <inertia ixx="2.1e-07" ixy="0" ixz="0" iyy="2.1e-07" iyz="0" izz="4e-07"/>
    </inertial>
    <collision name="my_chimuelo__collision_dir_right">
      <origin rpy="0  0  0" xyz="0  0  0"/>
      <geometry>
        <cylinder length="0.024239" radius="0.053621"/>
      </geometry>
    </collision>
    <visual name="my_chimuelo__visual_dir_right">
      <origin rpy="0  0  0" xyz="0  0  0"/>
      <geometry>
        <cylinder length="0.024239" radius="0.0536206"/>
      </geometry>
    </visual>
  </link>
  <link name="my_chimuelo_left_dir_link">
    <inertial>
      <mass value="0.00027881"/>
      <origin rpy="0  0  0" xyz="0  0  0"/>
      <inertia ixx="2.1e-07" ixy="0" ixz="0" iyy="2.1e-07" iyz="0" izz="4e-07"/>
    </inertial>
    <collision name="my_chimuelo__collision_dir_left">
      <origin rpy="0  0  0" xyz="0  0  0"/>
      <geometry>
        <cylinder length="0.024239" radius="0.053621"/>
      </geometry>
    </collision>
    <visual name="my_chimuelo__visual_dir_left">
      <origin rpy="0  0  0" xyz="0  0  0"/>
      <geometry>
        <cylinder length="0.024239" radius="0.0536206"/>
      </geometry>
    </visual>
  </link>
  <link name="my_chimuelo_left_front_wheel_link">
    <inertial>
      <mass value="0.00213182"/>
      <origin rpy="0  0  0" xyz="0  0  0"/>
      <inertia ixx="4.62e-06" ixy="0" ixz="0" iyy="4.62e-06" iyz="0" izz="6.67e-06"/>
    </inertial>
    <collision name="my_chimuelo__collision_left_front_wheel">
      <origin rpy="0  0  0" xyz="0  0  0"/>
      <geometry>
        <mesh filename="package://chimuelo/meshes/right_front_wheel_link.STL" scale="1.1 1.1 1.1"/>
      </geometry>
    </collision>
    <visual name="my_chimuelo__visual_left_front_wheel">
      <origin rpy="0  0  0" xyz="0  0  0"/>
      <geometry>
        <mesh filename="package://chimuelo/meshes/right_front_wheel_link.STL" scale="1.1 1.1 1.1"/>
      </geometry>
    </visual>
  </link>
  <link name="my_chimuelo_right_front_wheel_link">
    <inertial>
      <mass value="0.00213182"/>
      <origin rpy="0  0  0" xyz="0  0  0"/>
      <inertia ixx="4.62e-06" ixy="0" ixz="0" iyy="4.62e-06" iyz="0" izz="6.67e-06"/>
    </inertial>
    <collision name="my_chimuelo__collision_right_front_wheel">
      <origin rpy="0  0  0" xyz="0  0  0"/>
      <geometry>
        <mesh filename="package://chimuelo/meshes/right_front_wheel_link.STL" scale="1.1 1.1 1.1"/>
      </geometry>
    </collision>
    <visual name="my_chimuelo__visual_right_front_wheelt">
      <origin rpy="0  0  0" xyz="0  0  0"/>
      <geometry>
        <mesh filename="package://chimuelo/meshes/right_front_wheel_link.STL" scale="1.1 1.1 1.1"/>
      </geometry>
    </visual>
  </link>
  <link name="my_chimuelo_right_back_wheel_link">
    <inertial>
      <mass value="0.00213182"/>
      <origin rpy="0  0  0" xyz="0  0  0"/>
      <inertia ixx="4.62e-06" ixy="0" ixz="0" iyy="4.62e-06" iyz="0" izz="6.67e-06"/>
    </inertial>
    <collision name="my_chimuelo__collision_right_back_whee">
      <origin rpy="0  0  0" xyz="0  0  0"/>
      <geometry>
        <mesh filename="package://chimuelo/meshes/right_front_wheel_link.STL" scale="1.1 1.1 1.1"/>
      </geometry>
    </collision>
    <visual name="my_chimuelo__visual_right_back_whee">
      <origin rpy="0  0  0" xyz="0  0  0"/>
      <geometry>
        <mesh filename="package://chimuelo/meshes/right_front_wheel_link.STL" scale="1.1 1.1 1.1"/>
      </geometry>
    </visual>
  </link>
  <link name="my_chimuelo_left_back_wheel_link">
    <inertial>
      <mass value="0.00213182"/>
      <origin rpy="0  0  0" xyz="0  0  0"/>
      <inertia ixx="4.62e-06" ixy="0" ixz="0" iyy="4.62e-06" iyz="0" izz="6.67e-06"/>
    </inertial>
    <collision name="my_chimuelo__collision_left_back_whee">
      <origin rpy="0  0  0" xyz="0  0  0"/>
      <geometry>
        <mesh filename="package://chimuelo/meshes/right_front_wheel_link.STL" scale="1.1 1.1 1.1"/>
      </geometry>
    </collision>
    <visual name="my_chimuelo__visual_left_back_whee">
      <origin rpy="0  0  0" xyz="0  0  0"/>
      <geometry>
        <mesh filename="package://chimuelo/meshes/right_front_wheel_link.STL" scale="1.1 1.1 1.1"/>
      </geometry>
    </visual>
  </link>

    <!-- Gazebo -->

  <physics:ode>
  <stepTime>0.00001</stepTime>
  <gravity>0 0 -9.8</gravity>
  <cfm>0.0000000001</cfm>
  <erp>0.2</erp>
  <quickStep>true</quickStep>
  <quickStepIters>10000</quickStepIters>
  <quickStepW>1.3</quickStepW>
  <contactMaxCorrectingVel>100.0</contactMaxCorrectingVel>
  <contactSurfaceLayer>0.001</contactSurfaceLayer>
  </physics:ode>

  <gazebo>
        <plugin name="gazebo_ros_control" filename="libgazebo_ros_control.so">
          <robotNamespace>/</robotNamespace>
          <robotSimType>gazebo_ros_control/DefaultRobotHWSim</robotSimType>
          <legacyModeNS> true </legacyModeNS>
        </plugin>
  </gazebo>
<!-- Transmission tag -->

   <transmission name="front_right_wheel_joint_trans">
    <type>transmission_interface/SimpleTransmission</type>
    <joint name="right_front_wheel_joint">
      <hardwareInterface>hardware_interface/EffortJointInterface</hardwareInterface>
    </joint>
    <actuator name="joint_front_right_motor">
      <hardwareInterface>EffortJointInterface</hardwareInterface>
      <mechanicalReduction>1</mechanicalReduction>    
    </actuator>
  </transmission>

   <transmission name="front_left_wheel_joint_trans">
    <type>transmission_interface/SimpleTransmission</type>
    <joint name="left_front_wheel_joint">
      <hardwareInterface>hardware_interface/EffortJointInterface</hardwareInterface>
    </joint>
    <actuator name="joint_front_right_motor">
      <hardwareInterface>EffortJointInterface</hardwareInterface>
      <mechanicalReduction>1</mechanicalReduction>    
    </actuator>
  </transmission>

  <transmission name="back_right_wheel_joint_trans">
    <type>transmission_interface/SimpleTransmission</type>
    <joint name="right_back_wheel_joint">
      <hardwareInterface>hardware_interface/EffortJointInterface</hardwareInterface>
    </joint>
    <actuator name="joint_front_right_motor">
      <hardwareInterface>EffortJointInterface</hardwareInterface>
      <mechanicalReduction>1</mechanicalReduction>    
    </actuator>
  </transmission>
   <transmission name="back_left_wheel_joint_trans">
    <type>transmission_interface/SimpleTransmission</type>
    <joint name="left_back_wheel_joint">
      <hardwareInterface>hardware_interface/EffortJointInterface</hardwareInterface>
    </joint>
    <actuator name="joint_front_right_motor">
      <hardwareInterface>EffortJointInterface</hardwareInterface>
      <mechanicalReduction>1</mechanicalReduction>    
    </actuator> 
  </transmission>
  
     <transmission name="direction_front_left_tran">
      <type>transmission_interface/SimpleTransmission</type>
      <actuator name="$direction_front_left_motor">
        <hardwareInterface>EffortJointInterface</hardwareInterface>
        <mechanicalReduction>1</mechanicalReduction>
      </actuator>
      <joint name="joint_dir_left">
        <hardwareInterface>hardware_interface/EffortJointInterface</hardwareInterface>
      </joint>
  </transmission>
    <transmission name="direction_front_left_tran">
      <type>transmission_interface/SimpleTransmission</type>
      <actuator name="$direction_front_left_motor">
        <hardwareInterface>EffortJointInterface</hardwareInterface>
        <mechanicalReduction>1</mechanicalReduction>
      </actuator>
      <joint name="joint_dir_right">
        <hardwareInterface>hardware_interface/EffortJointInterface</hardwareInterface>
      </joint>
  </transmission>
  
  <!-- friction coefficients for non-fixed linked were specified so that if a collision occurred more accurate contact interactions were simulated-->

  <gazebo reference="my_chimuelo_left_front_wheel_link">
       <mu1 value="100.0"/>
       <mu2 value="100.0"/>
       <kp value="1000.0" />
       <kd value="0.1" />
       <material>Gazebo/Grey</material>
       <turnGravityOff>false</turnGravityOff>
        <minDepth>0.01</minDepth>
        <maxVel>10.0</maxVel>  
        <selfCollide> False </selfCollide>
  </gazebo>

  <gazebo reference="my_chimuelo_right_front_wheel_link">
       <mu1 value="100.0"/>
       <mu2 value="100.0"/>
       <kp value="1000.0" />
       <kd value="0.1" />
       <material>Gazebo/Grey</material>
       <turnGravityOff>false</turnGravityOff>
        <minDepth>0.01</minDepth>
        <maxVel>10.0</maxVel>  
        <selfCollide> False </selfCollide>
  </gazebo>

    <gazebo reference="my_chimuelo_right_back_wheel_link">
       <mu1 value="100.0"/>
       <mu2 value="100.0"/>
       <kp value="1000.0" />
       <kd value="0.1" />
       <material>Gazebo/Grey</material>
       <turnGravityOff>false</turnGravityOff>
       <selfCollide> true </selfCollide>
       <minDepth>0.01</minDepth>
        <maxVel>10.0</maxVel>  
        <selfCollide> False </selfCollide>
  </gazebo>
  
  <gazebo reference="my_chimuelo_left_back_wheel_link">
       <mu1 value="100.0"/>
       <mu2 value="100.0"/>
       <kp value="1000.0" />
       <kd value="0.1" />
       <material>Gazebo/Grey</material>
       <turnGravityOff>false</turnGravityOff>
              <minDepth>0.01</minDepth>
        <maxVel>10.0</maxVel>  
        <selfCollide> False </selfCollide>
  </gazebo>
  <gazebo reference="my_chimuelo_right_dir_link">
       <mu1 value="0.5"/>
       <mu2 value="0.5"/>
       <kp value="1000.0" />
       <kd value="0.1" />
       <material>Gazebo/Grey</material>
       <turnGravityOff>false</turnGravityOff>
              <minDepth>0.01</minDepth>
        <maxVel>10.0</maxVel>  
        <selfCollide> False </selfCollide>
  </gazebo>
    <gazebo reference="my_chimuelo_left_dir_link">
       <mu1 value="0.5"/>
       <mu2 value="0.5"/>
       <kp value="1000.0" />
       <kd value="0.1" />
       <material>Gazebo/Grey</material>
       <turnGravityOff>false</turnGravityOff>
              <minDepth>0.01</minDepth>
        <maxVel>10.0</maxVel>  
        <selfCollide> False </selfCollide>
  </gazebo>
<!--  always enable implicitSpringDamping for better stability simulating joint damping: ODE will use ERP and CFM to simulate damping. This is a more stable numerical method for damping than the default damping tag. 
link to ODE http://www.ode.org/ and http://www.ode.org/ode-latest-userguide.html#sec_7_3_7 -->
  <gazebo reference = "left_front_wheel_joint">
      <implicitSpringDamper>False</implicitSpringDamper>

  </gazebo>
  <gazebo reference = "right_front_wheel_joint">
      <implicitSpringDamper>False</implicitSpringDamper>             
  </gazebo>
    <gazebo reference = "right_back_wheel_joint">
      <implicitSpringDamper>False</implicitSpringDamper>

  </gazebo>
    <gazebo reference = "left_back_wheel_joint">
      <implicitSpringDamper>False</implicitSpringDamper>


  </gazebo>
  <gazebo reference = "joint_dir_right">
      <implicitSpringDamper>False</implicitSpringDamper>

  </gazebo>
  <gazebo reference = "joint_dir_left">
      <implicitSpringDamper>False</implicitSpringDamper>

  </gazebo>

    <!-- add a Camera -->
  <link name="camera_link">
    <collision>
      <origin xyz ="-0.102 0 0.0" rpy="0 0 0"/>
      <geometry>
        <box size ="0.03 0.03 0.03" />
      </geometry>
    </collision>

    <visual>
      <origin xyz ="-0.102 0 0.0" rpy="0 0 0"/>
      <geometry>
        <box size ="0.03 0.03 0.03" />
      </geometry>
    </visual>

    <inertial>
      <mass value="0.1"/>
      <origin xyz="-0.102 0 0.0" rpy ="0 0 0"/>
      <inertia ixx="0.0001" iyy="0.0001" izz="0.0001" 
        ixy="0" ixz="0" iyz="0"/>
    </inertial>
  </link>

  <link name="camera_link_trasera">
    <collision>
      <origin xyz ="0 0 0.0" rpy="0 0 0"/>
      <geometry>
        <box size ="0.03 0.03 0.03" />
      </geometry>
    </collision>

    <visual>
      <origin xyz ="0 0 0.0" rpy="0 0 0"/>
      <geometry>
        <box size ="0.03 0.03 0.03" />
      </geometry>
    </visual>

    <inertial>
      <mass value="0.1"/>
      <origin xyz="0 0 0.0" rpy ="0 0 0"/>
      <inertia ixx="0.0001" iyy="0.0001" izz="0.0001" 
        ixy="0" ixz="0" iyz="0"/>
    </inertial>
  </link>

  <joint name="camera_joint" type="fixed">
      <origin xyz="0.102 0 0.08" 
        rpy= "0 0.75 0"/>
      <axis xyz="0 0 0"/>
      <parent link="my_chimuelo_chasis"/>
      <child link="camera_link"/>
  </joint>
    <joint name="camera_joint_trasera" type="fixed">
      <origin xyz="-0.302 0 0.12" 
        rpy= "0 0.75 0"/>
      <axis xyz="0 0 0"/>
      <parent link="my_chimuelo_chasis"/>
      <child link="camera_link_trasera"/>
  </joint>
  <gazebo reference="camera_link">
      <sensor type="camera" name="camera1">
        <update_rate>30.0</update_rate>
        <camera name="head">
          <horizontal_fov>1.5</horizontal_fov>
          <image>
            <format>R8G8B8</format>
            <width>1020</width>
            <height>1020</height>
          </image>
          <clip>
            <near>0.04</near>
            <far>500</far>
          </clip>
        </camera>
        <plugin name="camera_controller" filename="libgazebo_ros_camera.so">
        <alwaysOn>true</alwaysOn>
        <updateRate>0.0</updateRate>
        <cameraName>chimuelo/camera1</cameraName>
        <imageTopicName>image1_raw</imageTopicName>
        <cameraInfoTopicName>camera1_info</cameraInfoTopicName>
        <frameName>camera_link</frameName>
        <hackBaseline>0.07</hackBaseline>
        <distortionK1>0.0</distortionK1>
        <distortionK2>0.0</distortionK2>
        <distortionK3>0.0</distortionK3>
        <distortionT1>0.0</distortionT1>
        <distortionT2>0.0</distortionT2>
        </plugin>
      </sensor>
    </gazebo>

    <gazebo reference="camera_link_trasera">
      <sensor type="camera" name="camera_trasera">
        <update_rate>30.0</update_rate>
        <camera name="head">
          <horizontal_fov>1.5</horizontal_fov>
          <image>
            <format>R8G8B8</format>
            <width>1020</width>
            <height>1020</height>
          </image>
          <clip>
            <near>0.04</near>
            <far>500</far>
          </clip>
        </camera>
        <plugin name="camera_controller" filename="libgazebo_ros_camera.so">
        <alwaysOn>true</alwaysOn>
        <updateRate>0.0</updateRate>
        <cameraName>chimuelo/camera_trasera</cameraName>
        <imageTopicName>image_trase_raw</imageTopicName>
        <cameraInfoTopicName>camera_trasera_info</cameraInfoTopicName>
        <frameName>camera_trasera_link</frameName>
        <hackBaseline>0.07</hackBaseline>
        <distortionK1>0.0</distortionK1>
        <distortionK2>0.0</distortionK2>
        <distortionK3>0.0</distortionK3>
        <distortionT1>0.0</distortionT1>
        <distortionT2>0.0</distortionT2>
        </plugin>
      </sensor>
    </gazebo>
  
</robot>
